<svg width="512" height="512" version="1.1" viewBox="0 0 135.5 135.5" xmlns="http://www.w3.org/2000/svg">
 <g transform="matrix(1.31 0 0 1.31 -19.62 -22.18)" fill-rule="evenodd" stroke="#bfbfbf" stroke-linecap="square" stroke-linejoin="round" stroke-width="3">
  <path d="m95.76 118.5v-69.2l-43.95-30.49v99.7z" fill="#bfbfbf" style="paint-order:markers stroke fill"/>
  <path d="m51.81 118.5-26.47 1e-5v-72.66l26.47-27.04z" fill="#fff" style="paint-order:markers stroke fill"/>
  <path d="m107.2 118.5v-36.09l-23.67-9.667v45.75z" fill="#bfbfbf" style="paint-order:markers stroke fill"/>
  <path d="m83.49 118.5h-23.28v-37.51l23.28-8.241z" fill="#fff" style="paint-order:markers stroke fill"/>
 </g>
</svg>