<svg width="512" height="512" version="1.1" viewBox="0 0 135.5 135.5" xmlns="http://www.w3.org/2000/svg">
 <g fill="none" stroke="#bfbfbf" stroke-linecap="round" stroke-linejoin="round" stroke-width="7.938">
  <path d="m15.88 15.87v103.7h103.7"/>
  <path d="m31.75 103.7 24.38-51.26 23.1 30.62 24.48-51.33"/>
 </g>
</svg>